<?xml version="1.0" encoding="UTF-8"?>
<kml xmlns="http://www.opengis.net/kml/2.2" xmlns:gx="http://www.google.com/kml/ext/2.2" xmlns:kml="http://www.opengis.net/kml/2.2" xmlns:atom="http://www.w3.org/2005/Atom">
<Document>
	<name>Ruta 26</name>
	<description>LA CUMBRE - A TOMAR LA TRANSVERSAL ORIENTAL - EL CARMEN - CONTINUANDO POR LA TRANSVERSAL ORIENTAL HASTA LA CARRERA 33 - CALLE 14 - BOULEVARD SANTANDER - RETORNO GLORIETA SAN FRANCISCO - CALLE 14 - INGRESANDO AL SECTOR DE PINOS Y REGRESO POR EL MISMO CORREDOR DE LA CARRERA 33 – TRANSVERSAL ORIENTAL – EL CARMEN - LA CUMBRE</description>
	<StyleMap id="msn_ylw-pushpin2">
		<Pair>
			<key>normal</key>
			<styleUrl>#sn_ylw-pushpin1</styleUrl>
		</Pair>
		<Pair>
			<key>highlight</key>
			<styleUrl>#sh_ylw-pushpin2</styleUrl>
		</Pair>
	</StyleMap>
	<StyleMap id="msn_ylw-pushpin1">
		<Pair>
			<key>normal</key>
			<styleUrl>#sn_ylw-pushpin2</styleUrl>
		</Pair>
		<Pair>
			<key>highlight</key>
			<styleUrl>#sh_ylw-pushpin1</styleUrl>
		</Pair>
	</StyleMap>
	<Style id="sn_ylw-pushpin2">
		<LineStyle>
			<color>ff3644db</color>
			<width>5</width>
		</LineStyle>
	</Style>
	<Style id="sh_ylw-pushpin2">
		<LineStyle>
			<color>ff990000</color>
			<width>7.5</width>
		</LineStyle>
	</Style>
	<StyleMap id="icon-25">
		<Pair>
			<key>normal</key>
			<styleUrl>#icon-25-normal</styleUrl>
		</Pair>
		<Pair>
			<key>highlight</key>
			<styleUrl>#icon-25-highlight</styleUrl>
		</Pair>
	</StyleMap>
	<Style id="sn_ylw-pushpin1">
		<LineStyle>
			<color>ff990000</color>
			<width>5</width>
		</LineStyle>
	</Style>
	<Style id="icon-25-highlight">
		<IconStyle>
			<scale>1.1</scale>
			<Icon>
				<href>https://www.gstatic.com/mapspro/images/stock/25-bus.png</href>
			</Icon>
		</IconStyle>
		<LabelStyle>
			<scale>1.1</scale>
		</LabelStyle>
	</Style>
	<Style id="sh_ylw-pushpin1">
		<LineStyle>
			<color>ff3644db</color>
			<width>7.5</width>
		</LineStyle>
	</Style>
	<Style id="icon-25-normal">
		<IconStyle>
			<scale>1.1</scale>
			<Icon>
				<href>https://www.gstatic.com/mapspro/images/stock/25-bus.png</href>
			</Icon>
		</IconStyle>
		<LabelStyle>
			<scale>0</scale>
		</LabelStyle>
	</Style>
	<Folder>
		<name>Capa sin nombre</name>
		<open>1</open>
		<Placemark>
			<name>INICIO RECORRIDO:</name>
			<description>La Cumbre - Transversal Oriental - El Carmen - Transversal Oriental hasta la Carrera 33 - Calle 14 - Bouleverd Ssantander - Glorieta de San Francisco</description>
			<styleUrl>#icon-25</styleUrl>
			<Point>
				<coordinates>-73.09718109366526,7.081217817467036,0</coordinates>
			</Point>
		</Placemark>
		<Placemark>
			<name>Inicio</name>
			<styleUrl>#msn_ylw-pushpin2</styleUrl>
			<LineString>
				<tessellate>1</tessellate>
				<coordinates>
					-73.09723045512771,7.081445609476224,0 -73.09602020104856,7.080144113158269,0 -73.09549574299241,7.079567704387101,0 -73.09487059746658,7.078623234371324,0 -73.09428954726488,7.07757440109562,0 -73.09364488941524,7.076754613899883,0 -73.09367074009083,7.076772787492299,0 -73.09307740996707,7.076245299387651,0 -73.09282839382189,7.075975459044098,0 -73.09266228540041,7.075702728366871,0 -73.0924872235061,7.07540545996286,0 -73.09206763681642,7.075392862877604,0 -73.09186398578322,7.075560380238781,0 -73.09134375228373,7.075713078892066,0 -73.09104122497843,7.075670008691219,0 -73.09063125147325,7.075502295188411,0 -73.09031481795131,7.075362740024497,0 -73.0896363667982,7.075673337423604,0 -73.08932200819541,7.075230458369551,0 -73.08908087556365,7.074766042782827,0 -73.08897499274859,7.074476594970598,0 -73.08836437819289,7.074791179883145,0 -73.08760041336538,7.075132059350857,0 -73.0870370760785,7.075534066174125,0 -73.08656337347296,7.07593952582819,0 -73.08625661606509,7.076282809472061,0 -73.08793600610808,7.078351219691094,0 -73.08680903494441,7.079926371130863,0 -73.08615376026536,7.079298755574567,0 -73.0857471556772,7.080283490136563,0 -73.08515,7.08015,0 -73.08485,7.08054,0 -73.08493,7.080830000000001,0 -73.08496,7.08194,0 -73.08475,7.08222,0 -73.08474,7.082319999999999,0 -73.08493,7.083070000000001,0 -73.08457,7.083469999999999,0 -73.08458,7.083820000000001,0 -73.08583,7.08418,0 -73.08672,7.084540000000001,0 -73.08747,7.084939999999999,0 -73.08799999999999,7.08527,0 -73.08925000000001,7.08658,0 -73.08965999999999,7.08672,0 -73.09065,7.08667,0 -73.09126999999999,7.08658,0 -73.09171000000001,7.08646,0 -73.09206,7.086440000000001,0 -73.0924,7.08658,0 -73.09284,7.08689,0 -73.0932,7.08701,0 -73.09338,7.087020000000001,0 -73.09663999999999,7.0862,0 -73.09787,7.08597,0 -73.09807000000001,7.08601,0 -73.09833,7.08626,0 -73.09838999999999,7.08679,0 -73.09828,7.0878,0 -73.09892000000001,7.08984,0 -73.09896999999999,7.09019,0 -73.09869999999999,7.09116,0 -73.09865000000001,7.09165,0 -73.09869999999999,7.092130000000001,0 -73.09917,7.09301,0 -73.0992,7.09348,0 -73.0994,7.09381,0 -73.1009,7.094519999999999,0 -73.10120000000001,7.09473,0 -73.10147000000001,7.09507,0 -73.10227,7.09637,0 -73.10301,7.09738,0 -73.10366,7.09783,0 -73.10436,7.098,0 -73.10601,7.097959999999999,0 -73.10625,7.098070000000001,0 -73.10644000000001,7.09827,0 -73.10688,7.10091,0 -73.10702999999999,7.10157,0 -73.10722,7.102009999999999,0 -73.10787000000001,7.10296,0 -73.10926000000001,7.10478,0 -73.10948,7.10519,0 -73.10951,7.105629999999999,0 -73.10944000000001,7.105969999999999,0 -73.10921,7.10644,0 -73.10921,7.10673,0 -73.1097,7.10957,0 -73.11002999999999,7.11103,0 -73.11032,7.1131,0 -73.111053,7.117202999999999,0 -73.11150000000001,7.11975,0 -73.11190999999999,7.12185,0 -73.1125,7.12547,0 -73.11257000000001,7.12557,0 -73.11220610745778,7.126549215711314,0 -73.11179894604102,7.12785953972061,0 -73.11277247795489,7.130903499607722,0 -73.11253076582908,7.134295056918655,0 -73.11756,7.13457,0 -73.11772999999999,7.13463,0 -73.11781000000001,7.13476,0 -73.11803999999999,7.13485,0 -73.1183,7.1346,0 -73.12132,7.1347,0 -73.12291,7.13442,0 -73.12311,7.13421,0 -73.12365,7.13327,0 -73.12436,7.132290000000001,0 -73.12474,7.13167,0 -73.12494,7.13174,0 -73.12517,7.13173,0 -73.12541,7.13157,0 -73.12586115768238,7.131849219517526,0 -73.12647178684676,7.132146591493096,0 -73.12705118709536,7.132520645304916,0 -73.12729972464588,7.134198391164944,0 -73.12755164790946,7.135290392107227,0 -73.12764426345694,7.135548933754671,0 -73.12776538130205,7.136283137223421,0 -73.12794069605908,7.137225551632865,0 -73.12882415814339,7.137130663880028,0 
				</coordinates>
			</LineString>
		</Placemark>
		<Placemark>
			<name>REGRESO POR:</name>
			<description>Retorno Glorieta San Francisco - Calle 14 - Ingresando al  sector de Pinos y regreso por el mismo corredor de la Carrera 33 – Transversal Oriental – El Carmen - La Cumbre</description>
			<styleUrl>#icon-25</styleUrl>
			<Point>
				<coordinates>-73.12874014113765,7.13696664395187,0</coordinates>
			</Point>
		</Placemark>
		<Placemark>
			<name>Regreso</name>
			<styleUrl>#msn_ylw-pushpin1</styleUrl>
			<LineString>
				<tessellate>1</tessellate>
				<coordinates>
					-73.12878877137418,7.137051916116783,0 -73.12850996977993,7.13590535889145,0 -73.12842305361271,7.135183936467802,0 -73.12804545583953,7.133258963454583,0 -73.1272311307152,7.133388234699852,0 -73.1263402492756,7.133533970726677,0 -73.1255341423081,7.133690136452574,0 -73.12465155082015,7.13386547981727,0 -73.12383670707939,7.134023334190439,0 -73.12297504065469,7.134366791508677,0 -73.122119,7.134468,0 -73.121309,7.134612,0 -73.120403,7.134609,0 -73.12025199999999,7.134590000000001,0 -73.119469,7.134553,0 -73.118686,7.134535000000001,0 -73.118244,7.134547999999999,0 -73.11817600000001,7.134391,0 -73.117957,7.134319000000001,0 -73.11250745111467,7.134281387037241,0 -73.112799,7.131346,0 -73.112801,7.130566,0 -73.112399,7.129464,0 -73.112128,7.128727,0 -73.111846,7.128051,0 -73.111836,7.12778,0 -73.11214699999999,7.126893,0 -73.112391,7.126178000000001,0 -73.112619,7.125438,0 -73.11247899999999,7.124622999999999,0 -73.11235600000001,7.123962999999999,0 -73.112222,7.123287,0 -73.11209100000001,7.12259,0 -73.111981,7.121834000000001,0 -73.111825,7.121024999999999,0 -73.111602,7.119819000000001,0 -73.111417,7.118826,0 -73.11121900000001,7.117655000000001,0 -73.11106100000001,7.11658,0 -73.11089699999999,7.115662,0 -73.110615,7.114187,0 -73.110433,7.113083,0 -73.11026699999999,7.111965,0 -73.11015399999999,7.111401,0 -73.110052,7.110735,0 -73.10997999999999,7.110247999999999,0 -73.109854,7.10966,0 -73.10980499999999,7.109546,0 -73.109655,7.108502,0 -73.109454,7.107403000000001,0 -73.10933900000001,7.106743000000001,0 -73.10932200000001,7.106463,0 -73.109521,7.106128000000001,0 -73.109741,7.105633,0 -73.10969,7.105311,0 -73.10961500000001,7.105058,0 -73.109325,7.10463,0 -73.10878599999999,7.103831,0 -73.107947,7.102809,0 -73.107322,7.101916999999999,0 -73.10715500000001,7.101537,0 -73.107061,7.101106,0 -73.10688399999999,7.100206,0 -73.10666399999999,7.099053,0 -73.106509,7.098230999999999,0 -73.10630500000001,7.09797,0 -73.106117,7.09785,0 -73.105761,7.097808,0 -73.105474,7.097809999999999,0 -73.105085,7.097728000000001,0 -73.104725,7.09784,0 -73.104371,7.097901,0 -73.103803,7.097743999999999,0 -73.10307299999999,7.097302,0 -73.10237600000001,7.096365,0 -73.102215,7.096146999999999,0 -73.10151500000001,7.095058,0 -73.101241,7.094690999999999,0 -73.10097,7.094438,0 -73.100227,7.094087000000001,0 -73.09975799999999,7.093911,0 -73.09944400000001,7.093717,0 -73.099272,7.093477,0 -73.099243,7.092958,0 -73.09904400000001,7.092538000000001,0 -73.09880800000001,7.092099,0 -73.09872,7.091806,0 -73.098744,7.091369,0 -73.099098,7.090187,0 -73.099039,7.08961,0 -73.098918,7.089306,0 -73.098529,7.088242,0 -73.09838999999999,7.087824,0 -73.098411,7.087427,0 -73.098446,7.087137,0 -73.09846,7.08682,0 -73.098406,7.086216,0 -73.098167,7.085969,0 -73.097808,7.085861999999999,0 -73.097392,7.085904999999999,0 -73.096923,7.086027,0 -73.09635400000001,7.086171,0 -73.095828,7.086323,0 -73.094804,7.086576000000001,0 -73.093253,7.086932,0 -73.09289099999999,7.086794,0 -73.092215,7.086352,0 -73.091864,7.086348999999999,0 -73.09127100000001,7.086474000000001,0 -73.090547,7.086591,0 -73.089783,7.086609999999999,0 -73.089533,7.086591,0 -73.089316,7.086522,0 -73.088337,7.08542,0 -73.088036,7.085183,0 -73.087822,7.085093,0 -73.087495,7.084868999999999,0 -73.08693100000001,7.084577,0 -73.08673,7.084505000000001,0 -73.08590100000001,7.084113,0 -73.085617,7.084015000000001,0 -73.085177,7.083877000000001,0 -73.084829,7.083789,0 -73.08460599999999,7.083703,0 -73.084611,7.083493000000001,0 -73.084711,7.083355000000001,0 -73.084885,7.083222,0 -73.08498400000001,7.083067,0 -73.08488,7.082618,0 -73.084791,7.082310999999999,0 -73.084791,7.082234,0 -73.085003,7.081944000000001,0 -73.08498400000001,7.080863000000001,0 -73.084898,7.080549,0 -73.085183,7.080198,0 -73.08573292417698,7.080298228650644,0 -73.086186,7.079346,0 -73.086626,7.078481,0 -73.087012,7.078131999999999,0 -73.087417,7.077842,0 -73.088171,7.077164,0 -73.089254,7.076565,0 -73.08945674734385,7.076012573998649,0 -73.08960810087358,7.075719194608002,0 -73.09029908453299,7.075368366405796,0 -73.09079330877532,7.075550260455495,0 -73.09136817853987,7.075684879708595,0 -73.09169512577508,7.075551158826812,0 -73.09193880877923,7.075542812342179,0 -73.09215634271229,7.075369397046845,0 -73.09250326883651,7.075349008710808,0 -73.09290754515111,7.076053033698699,0 -73.0932753653381,7.076290078540239,0 -73.09367975973321,7.076681632596425,0 -73.09406883715911,7.077240865520772,0 -73.09448081686271,7.077847817469158,0 -73.09478042608355,7.078512008900409,0 -73.09517374700425,7.078980355626348,0 -73.09573011605195,7.079721682241198,0 -73.09624533332686,7.080341243687826,0 -73.09730908561842,7.081421052502397,0 -73.09729779263013,7.081423562955883,0 
				</coordinates>
			</LineString>
		</Placemark>
	</Folder>
</Document>
</kml>
