<?xml version="1.0" encoding="UTF-8"?>
<kml xmlns="http://www.opengis.net/kml/2.2" xmlns:gx="http://www.google.com/kml/ext/2.2" xmlns:kml="http://www.opengis.net/kml/2.2" xmlns:atom="http://www.w3.org/2005/Atom">
<Document>
	<name>RUTA 7</name>
	<visibility>0</visibility>
	<open>1</open>
	<description>ANDES - CALLE 205 - CARRERA 40 - CARRERA 15 - CALLE 5 - CARRERA 11 - PARAGUITAS - VÍA PRINCIPAL DE BUCARICA - TRANSVERSAL ORIENTAL - CARRERA 33 - CALLE 32 A - CALLE 14 –GLORIETA DE LA CARRERA 30 – AVENIDA QUEBRADASECA - MEGAMALL - CARRERA 33 - PLAZA GUARÍN - CARRERA 33 - TRANSVERSAL ORIENTAL - VÍA PRINCIPAL BUCARICA - CARRERA 11 - CALLE 3 - CARRERA 10 - CALLE 6 - CARRERA 15 - CALLE 203 - AL TERMINAL</description>
	<StyleMap id="icon-25">
		<Pair>
			<key>normal</key>
			<styleUrl>#icon-25-normal</styleUrl>
		</Pair>
		<Pair>
			<key>highlight</key>
			<styleUrl>#icon-25-highlight</styleUrl>
		</Pair>
	</StyleMap>
	<StyleMap id="msn_ylw-pushpin">
		<Pair>
			<key>normal</key>
			<styleUrl>#sn_ylw-pushpin</styleUrl>
		</Pair>
		<Pair>
			<key>highlight</key>
			<styleUrl>#sh_ylw-pushpin0</styleUrl>
		</Pair>
	</StyleMap>
	<Style id="sh_ylw-pushpin">
		<LineStyle>
			<color>ff3644db</color>
			<width>7.5</width>
		</LineStyle>
	</Style>
	<Style id="icon-25-normal">
		<IconStyle>
			<scale>1.1</scale>
			<Icon>
				<href>https://www.gstatic.com/mapspro/images/stock/25-bus.png</href>
			</Icon>
		</IconStyle>
		<LabelStyle>
			<scale>0</scale>
		</LabelStyle>
	</Style>
	<Style id="icon-25-normal0">
		<IconStyle>
			<scale>1.1</scale>
			<Icon>
				<href>https://www.gstatic.com/mapspro/images/stock/25-bus.png</href>
			</Icon>
		</IconStyle>
		<LabelStyle>
			<scale>0</scale>
		</LabelStyle>
	</Style>
	<Style id="icon-25-highlight0">
		<IconStyle>
			<scale>1.1</scale>
			<Icon>
				<href>https://www.gstatic.com/mapspro/images/stock/25-bus.png</href>
			</Icon>
		</IconStyle>
		<LabelStyle>
			<scale>1.1</scale>
		</LabelStyle>
	</Style>
	<StyleMap id="msn_ylw-pushpin0">
		<Pair>
			<key>normal</key>
			<styleUrl>#sn_ylw-pushpin0</styleUrl>
		</Pair>
		<Pair>
			<key>highlight</key>
			<styleUrl>#sh_ylw-pushpin</styleUrl>
		</Pair>
	</StyleMap>
	<Style id="sn_ylw-pushpin">
		<LineStyle>
			<color>ffff0000</color>
			<width>5</width>
		</LineStyle>
	</Style>
	<Style id="sn_ylw-pushpin0">
		<LineStyle>
			<color>ff3644db</color>
			<width>5</width>
		</LineStyle>
	</Style>
	<Style id="icon-25-highlight">
		<IconStyle>
			<scale>1.1</scale>
			<Icon>
				<href>https://www.gstatic.com/mapspro/images/stock/25-bus.png</href>
			</Icon>
		</IconStyle>
		<LabelStyle>
			<scale>1.1</scale>
		</LabelStyle>
	</Style>
	<Style id="sh_ylw-pushpin0">
		<LineStyle>
			<color>ffff0000</color>
			<width>7.5</width>
		</LineStyle>
	</Style>
	<StyleMap id="icon-250">
		<Pair>
			<key>normal</key>
			<styleUrl>#icon-25-normal0</styleUrl>
		</Pair>
		<Pair>
			<key>highlight</key>
			<styleUrl>#icon-25-highlight0</styleUrl>
		</Pair>
	</StyleMap>
	<Folder>
		<name>Capa sin nombre</name>
		<visibility>0</visibility>
		<open>1</open>
		<Placemark>
			<name>INICIO RECORRIDO:</name>
			<visibility>0</visibility>
			<description>Andes - Calle 205 - Carrera 40 - Carrera 15 - Calle 5 - Carrera 11 - Paraguitas - Vía Principal de Bucarica - Transversal Oriental - Carrera 33 - Calle 32 A - Calle 14 –Glorieta la Carrera 30</description>
			<styleUrl>#icon-25</styleUrl>
			<Point>
				<coordinates>-73.07989792147616,7.049600567836031,0</coordinates>
			</Point>
		</Placemark>
		<Placemark>
			<name>Inicio</name>
			<visibility>0</visibility>
			<styleUrl>#msn_ylw-pushpin</styleUrl>
			<LineString>
				<tessellate>1</tessellate>
				<coordinates>
					-73.12375099551967,7.138084056236599,0 -73.12375465793126,7.138180891892566,0 -73.1229054291736,7.138270155112763,0 -73.12214801826727,7.134602554315435,0 -73.11826013467592,7.13458313981002,0 -73.11804983077036,7.134847946321114,0 -73.11774392180838,7.134810569469581,0 -73.116688,7.134532,0 -73.115567,7.134481,0 -73.11545099999999,7.133997,0 -73.11528,7.13314,0 -73.115092,7.132331,0 -73.114896,7.131463,0 -73.11472999999999,7.130625,0 -73.114572,7.129954,0 -73.114357,7.129962,0 -73.113595,7.128568,0 -73.11294599999999,7.127322,0 -73.112748,7.126289,0 -73.112584,7.125571,0 -73.112512,7.125486,0 -73.112415,7.124767,0 -73.11224900000001,7.124040000000001,0 -73.11214699999999,7.123311000000001,0 -73.112037,7.122614,0 -73.111908,7.121842,0 -73.111739,7.121083,0 -73.11153299999999,7.119931000000001,0 -73.11135299999999,7.118864,0 -73.111211,7.118102,0 -73.11095299999999,7.116593,0 -73.110698,7.115116000000001,0 -73.11058300000001,7.11443,0 -73.11032299999999,7.113131,0 -73.110114,7.111627,0 -73.11003599999999,7.111036,0 -73.109741,7.109697,0 -73.109706,7.109600999999999,0 -73.10943,7.108047,0 -73.109207,7.106731999999999,0 -73.109207,7.10645,0 -73.10945700000001,7.105971,0 -73.109505,7.105649,0 -73.10949100000001,7.105197,0 -73.10935499999999,7.104938,0 -73.109191,7.104683000000001,0 -73.108636,7.103954000000001,0 -73.107917,7.103021999999999,0 -73.107241,7.10204,0 -73.107043,7.101622000000001,0 -73.106887,7.10093,0 -73.10666399999999,7.099594,0 -73.10643899999999,7.09826,0 -73.10624900000001,7.098069,0 -73.10600700000001,7.097965,0 -73.10550600000001,7.097962,0 -73.105034,7.098007,0 -73.104393,7.098004999999999,0 -73.103634,7.097816,0 -73.103009,7.097379,0 -73.102585,7.096823,0 -73.102276,7.096371,0 -73.101445,7.095032000000001,0 -73.101209,7.094735999999999,0 -73.100914,7.094534,0 -73.09990000000001,7.094015,0 -73.099672,7.093948,0 -73.099412,7.093814999999999,0 -73.099211,7.093499,0 -73.09917299999999,7.093009,0 -73.098806,7.092367000000001,0 -73.098696,7.092128,0 -73.098645,7.091723,0 -73.098696,7.091163999999999,0 -73.09888599999999,7.090628999999999,0 -73.098972,7.090203,0 -73.098932,7.089852,0 -73.098473,7.088464999999999,0 -73.09828,7.087818999999999,0 -73.098328,7.087425,0 -73.098333,7.087156000000001,0 -73.098392,7.086799,0 -73.098331,7.086248,0 -73.098068,7.086011,0 -73.097864,7.085971,0 -73.097413,7.086051000000001,0 -73.097105,7.086122999999999,0 -73.096727,7.086184,0 -73.09649899999999,7.086251,0 -73.09596500000001,7.086347,0 -73.095265,7.086536,0 -73.094318,7.086778,0 -73.093401,7.087023,0 -73.09320200000001,7.087020000000001,0 -73.09283499999999,7.086887,0 -73.092586,7.086702999999999,0 -73.092341,7.086552000000001,0 -73.09207600000001,7.086440000000001,0 -73.09169799999999,7.086464,0 -73.09127100000001,7.086594,0 -73.09066199999999,7.086668999999999,0 -73.089659,7.086725,0 -73.089252,7.086588999999999,0 -73.088605,7.085875,0 -73.08801,7.085282,0 -73.08779199999999,7.085157,0 -73.087479,7.084947,0 -73.08687999999999,7.084619000000001,0 -73.086247,7.084353,0 -73.085655,7.084127,0 -73.085121,7.083958999999999,0 -73.084587,7.083826,0 -73.084247,7.083762,0 -73.083957,7.083672,0 -73.08352499999999,7.083339,0 -73.083198,7.082886,0 -73.08301,7.0825,0 -73.082887,7.082184000000001,0 -73.082353,7.080874,0 -73.081867,7.079533000000001,0 -73.082125,7.078803000000001,0 -73.082093,7.077648,0 -73.082691,7.076777999999999,0 -73.08279,7.075444,0 -73.082903,7.07394,0 -73.08300699999999,7.072577,0 -73.083589,7.071558,0 -73.083828,7.070722,0 -73.083651,7.070089,0 -73.082731,7.069452,0 -73.08178700000001,7.068502,0 -73.081318,7.068026000000001,0 -73.082318,7.066964,0 -73.082795,7.066546000000001,0 -73.083901,7.066586,0 -73.08446600000001,7.065779,0 -73.08475300000001,7.06547,0 -73.084751,7.064986000000001,0 -73.084509,7.064328000000001,0 -73.084236,7.063611999999999,0 -73.083163,7.064043000000001,0 -73.082369,7.064294,0 -73.081875,7.064466999999999,0 -73.08069,7.064938,0 -73.08049699999999,7.064658000000001,0 -73.080285,7.064178999999999,0 -73.0801,7.063758999999999,0 -73.079982,7.063471,0 -73.079925,7.063067,0 -73.07979400000001,7.062846000000001,0 -73.07962499999999,7.062532,0 -73.079488,7.062217,0 -73.07927599999999,7.061933,0 -73.079097,7.061643,0 -73.07888199999999,7.061187,0 -73.07947,7.061028,0 -73.08010299999999,7.061014000000001,0 -73.080797,7.060668,0 -73.08082899999999,7.060519,0 -73.081135,7.060333000000001,0 -73.081304,7.060013,0 -73.08154,7.059435999999999,0 -73.08203179495996,7.059441212266218,0 -73.082492,7.0595,0 -73.08269541757076,7.059398068179046,0 -73.08283341022421,7.059152875254867,0 -73.08298986778115,7.058837749960858,0 -73.08334357635883,7.058597675128657,0 -73.0842500251247,7.058013723977563,0 -73.08402423183949,7.057459899101212,0 -73.08393151232022,7.057237014236019,0 -73.08378369077241,7.057097814382909,0 -73.08357232072029,7.057070546627837,0 -73.08332265685294,7.057067270383542,0 -73.08309986544758,7.056946200064629,0 -73.08300123831475,7.056780637979262,0 -73.08289784465586,7.056495004027878,0 -73.08275531179845,7.056303131106288,0 -73.08260299121095,7.056083246660698,0 -73.08253998908873,7.055773868395142,0 -73.08249834507258,7.055499558069407,0 -73.08243242286419,7.055239132548923,0 -73.08213946881503,7.054811653208788,0 -73.08200988688729,7.054599950414265,0 -73.08194460367069,7.054195896642192,0 -73.08198094700039,7.05387624293723,0 -73.08202834962472,7.053584466180139,0 -73.08207640461826,7.053261668263361,0 -73.08202947124394,7.052824627471242,0 -73.08202062009752,7.052217070326919,0 -73.08197611238154,7.051757850427228,0 -73.08193058456568,7.05153196177425,0 -73.08181211776004,7.051248661255669,0 -73.08156024628357,7.050690904368198,0 -73.08121976048385,7.050269154103293,0 -73.08094187614827,7.049984563534999,0 -73.08054715224567,7.049629710915631,0 -73.08029588195396,7.04960489969185,0 -73.07991565023323,7.049651083171267,0 
				</coordinates>
			</LineString>
		</Placemark>
		<Placemark>
			<name>REGRESO POR:</name>
			<visibility>0</visibility>
			<description>Glorieta la Carrera 30 – AV Quebradaseca - Megamall - Carrera 33 - Plaza Guarin - Carrera 33 - Transversal Oriental - Via Principal Bucarica - Carrera 11 - Calle 3 - Carrera 10 - Calle 6 - Carrera 15 - Calle 203 - AL Terminal</description>
			<styleUrl>#icon-250</styleUrl>
			<Point>
				<coordinates>-73.118048,7.134704999999999,0</coordinates>
			</Point>
		</Placemark>
		<Placemark>
			<name>Regreso</name>
			<visibility>0</visibility>
			<styleUrl>#msn_ylw-pushpin0</styleUrl>
			<LineString>
				<tessellate>1</tessellate>
				<coordinates>
					-73.07993164023118,7.04967788340509,0 -73.07970530817468,7.048834060884885,0 -73.07934584306224,7.048579666123229,0 -73.07908258901045,7.048174328948052,0 -73.07896777479091,7.04780652951944,0 -73.07888542962989,7.047477009414974,0 -73.07885492612129,7.047185977196486,0 -73.07875303019209,7.046816031716774,0 -73.07846664892607,7.046336747655216,0 -73.07817497208737,7.046036635296428,0 -73.07781245593719,7.045511628934399,0 -73.07771305753526,7.045137077576203,0 -73.07770099174789,7.04477628015468,0 -73.07768765527076,7.044351475360247,0 -73.07753424936575,7.043927017782101,0 -73.0773806738257,7.043568251322038,0 -73.0773290020249,7.043275168826243,0 -73.07729361604787,7.043008092301372,0 -73.07727028108708,7.042479497077282,0 -73.07721443097924,7.042061679868138,0 -73.07714811994575,7.04178404405372,0 -73.07692988732273,7.04151465996971,0 -73.07659547896843,7.041173479909441,0 -73.07629232550849,7.040885017017026,0 -73.07592323508985,7.040585637689538,0 -73.07564971204035,7.040463065202429,0 -73.07530357321446,7.040274820616593,0 -73.07501630600117,7.040095143348474,0 -73.07500281070614,7.039907965877247,0 -73.075091272793,7.039809000587864,0 -73.07522511299422,7.039769465200516,0 -73.07538538267436,7.039835700172092,0 -73.07571268030084,7.040138980048184,0 -73.07615588435947,7.040517146819202,0 -73.07660038414328,7.040982008627998,0 -73.07700154028302,7.041357048260187,0 -73.0772771583397,7.041679590643342,0 -73.07737596734192,7.042123838605798,0 -73.07740430451823,7.042628502604073,0 -73.07746198733895,7.043184843619467,0 -73.07767890628658,7.043750636549244,0 -73.07784384861618,7.044302652707661,0 -73.07787616761802,7.044842249939483,0 -73.07790215273562,7.045404624992939,0 -73.07841371969077,7.046055582431221,0 -73.07868855585676,7.046369614702038,0 -73.07887535042074,7.046686489662209,0 -73.07903036507028,7.047127712795019,0 -73.07910744299444,7.047663040872953,0 -73.07918727524893,7.048106581930639,0 -73.07953292396164,7.048587017450006,0 -73.08028051091358,7.049182703148052,0 -73.08066924347919,7.049455900265783,0 -73.08114520901742,7.049942661190289,0 -73.08165455296857,7.050542931786294,0 -73.08200829490971,7.051431067336698,0 -73.08211303489358,7.052432563140632,0 -73.08222476081144,7.053314824478271,0 -73.08224811845353,7.054000444223886,0 -73.08235456101195,7.054413780634214,0 -73.08249088285385,7.054952115087045,0 -73.08272911905145,7.055485464561234,0 -73.08302606313491,7.056006412134467,0 -73.0831160419369,7.056209425728075,0 -73.08315992073084,7.056394145125607,0 -73.0831647345442,7.056614928073155,0 -73.08322034861659,7.056820258063712,0 -73.08335308913986,7.056915007510284,0 -73.08348849963717,7.056954817095018,0 -73.08365853699986,7.056993285780439,0 -73.08379754038907,7.056975581949466,0 -73.08399237407288,7.057079282080274,0 -73.08408093730421,7.05724874758013,0 -73.08414719518416,7.057420715499787,0 -73.08423795519556,7.057668330113914,0 -73.08433329102178,7.057890840297057,0 -73.08436632098007,7.05800251838239,0 -73.08391919709321,7.058279122753103,0 -73.08359369249483,7.058539541715341,0 -73.08305480043842,7.058904981695177,0 -73.08290051244617,7.059176150996295,0 -73.08271581398679,7.059454327303073,0 -73.0823733745499,7.059537366511791,0 -73.08156849596449,7.059426729436751,0 -73.08116,7.06034,0 -73.08086,7.060539999999999,0 -73.08083999999999,7.06068,0 -73.0801,7.061050000000001,0 -73.07947,7.061060000000001,0 -73.0789,7.061209999999999,0 -73.07837000000001,7.06153,0 -73.07714,7.06251,0 -73.0774,7.06276,0 -73.07761000000001,7.06316,0 -73.07839,7.06397,0 -73.07995,7.06308,0 -73.08,7.063440000000001,0 -73.08038000000001,7.06433,0 -73.08468000000001,7.062620000000001,0 -73.08544999999999,7.064739999999999,0 -73.08477999999999,7.065010000000001,0 -73.08477999999999,7.06547,0 -73.08449,7.0658,0 -73.08391,7.06662,0 -73.08280000000001,7.06659,0 -73.08235999999999,7.06696,0 -73.08137000000001,7.06802,0 -73.08275,7.06941,0 -73.08372,7.069960000000001,0 -73.08384,7.07024,0 -73.08393,7.07085,0 -73.08373,7.07161,0 -73.08332,7.072190000000001,0 -73.08311,7.07267,0 -73.08282,7.076549999999999,0 -73.08277,7.07677,0 -73.08221,7.07777,0 -73.08225,7.07871,0 -73.08199,7.07957,0 -73.08251,7.08103,0 -73.08302,7.08228,0 -73.08332,7.082830000000001,0 -73.0836,7.08321,0 -73.08396,7.08353,0 -73.08578,7.084060000000001,0 -73.08747,7.08485,0 -73.08803,7.08517,0 -73.08833,7.08541,0 -73.08931,7.086509999999999,0 -73.08953,7.08658,0 -73.09057,7.08658,0 -73.09188,7.08635,0 -73.09219,7.08634,0 -73.0929,7.0868,0 -73.09325,7.086930000000001,0 -73.09739999999999,7.0859,0 -73.09779,7.085859999999999,0 -73.09815,7.08596,0 -73.09841,7.086210000000001,0 -73.09846,7.08683,0 -73.09838999999999,7.08783,0 -73.09903,7.0896,0 -73.09909,7.09019,0 -73.09874000000001,7.09137,0 -73.09872,7.09179,0 -73.0988,7.09211,0 -73.09923999999999,7.09296,0 -73.099278,7.093222000000001,0 -73.09927999999999,7.09347,0 -73.09943,7.093700000000001,0 -73.09976,7.09391,0 -73.10098000000001,7.094450000000001,0 -73.10122,7.094669999999999,0 -73.10222,7.096149999999999,0 -73.10307,7.0973,0 -73.10379,7.097740000000001,0 -73.10437,7.097899999999999,0 -73.10509,7.097719999999999,0 -73.10548,7.097809999999999,0 -73.10612,7.09784,0 -73.10630999999999,7.097990000000001,0 -73.1065,7.09824,0 -73.10715,7.101519999999999,0 -73.10731,7.10191,0 -73.10795,7.10281,0 -73.10878,7.10383,0 -73.1096,7.10505,0 -73.10968,7.105299999999999,0 -73.10974,7.105639999999999,0 -73.10932,7.10646,0 -73.10933,7.10676,0 -73.10980000000001,7.10954,0 -73.10997,7.1102,0 -73.11121,7.11766,0 -73.11262000000001,7.125430000000001,0 -73.11183,7.12777,0 -73.11184,7.12805,0 -73.11279999999999,7.130549999999999,0 -73.11279,7.1309,0 -73.1133,7.13075,0 -73.11533,7.12918,0 -73.11602000000001,7.12872,0 -73.11678999999999,7.128399999999999,0 -73.11795830044622,7.134255386859742,0 -73.11827899506389,7.13453911332605,0 -73.12209740724076,7.134580219717748,0 -73.12293160441347,7.134332227412587,0 -73.12374916897639,7.138107168935682,0 
				</coordinates>
			</LineString>
		</Placemark>
	</Folder>
</Document>
</kml>
