<?xml version="1.0" encoding="UTF-8"?>
<kml xmlns="http://www.opengis.net/kml/2.2">
  <Document>
    <name>RUTA 1 - RESOLUCIÓN No.: 002029 (01 DE OCTUBRE DE 2014)</name>
    <description>CONVIVIR - CHIMITÁ - CALLE 45 - CAMPO HERMOSO - CARRERA 9 - CALLE 33 - CARRERA 19 - CALLE 14 - CARRERA 30 - AVENIDA QUEBRADASECA - CARRERA 33 - CALLE 34 - CARRERA 9- CALLE 45 - CENTRO ABASTOS - CHIMITA - CONVIVIR</description>
    <Style id="icon-25-normal">
      <IconStyle>
        <scale>1.1</scale>
        <Icon>
          <href>https://www.gstatic.com/mapspro/images/stock/25-bus.png</href>
        </Icon>
      </IconStyle>
      <LabelStyle>
        <scale>0</scale>
      </LabelStyle>
    </Style>
    <Style id="icon-25-highlight">
      <IconStyle>
        <scale>1.1</scale>
        <Icon>
          <href>https://www.gstatic.com/mapspro/images/stock/25-bus.png</href>
        </Icon>
      </IconStyle>
      <LabelStyle>
        <scale>1.1</scale>
      </LabelStyle>
    </Style>
    <StyleMap id="icon-25">
      <Pair>
        <key>normal</key>
        <styleUrl>#icon-25-normal</styleUrl>
      </Pair>
      <Pair>
        <key>highlight</key>
        <styleUrl>#icon-25-highlight</styleUrl>
      </Pair>
    </StyleMap>
    <Style id="line-000099-5000-nodesc-normal">
      <LineStyle>
        <color>ff990000</color>
        <width>5</width>
      </LineStyle>
      <BalloonStyle>
        <text><![CDATA[<h3>$[name]</h3>]]></text>
      </BalloonStyle>
    </Style>
    <Style id="line-000099-5000-nodesc-highlight">
      <LineStyle>
        <color>ff990000</color>
        <width>7.5</width>
      </LineStyle>
      <BalloonStyle>
        <text><![CDATA[<h3>$[name]</h3>]]></text>
      </BalloonStyle>
    </Style>
    <StyleMap id="line-000099-5000-nodesc">
      <Pair>
        <key>normal</key>
        <styleUrl>#line-000099-5000-nodesc-normal</styleUrl>
      </Pair>
      <Pair>
        <key>highlight</key>
        <styleUrl>#line-000099-5000-nodesc-highlight</styleUrl>
      </Pair>
    </StyleMap>
    <Style id="line-DB4436-5000-nodesc-normal">
      <LineStyle>
        <color>ff3644db</color>
        <width>5</width>
      </LineStyle>
      <BalloonStyle>
        <text><![CDATA[<h3>$[name]</h3>]]></text>
      </BalloonStyle>
    </Style>
    <Style id="line-DB4436-5000-nodesc-highlight">
      <LineStyle>
        <color>ff3644db</color>
        <width>7.5</width>
      </LineStyle>
      <BalloonStyle>
        <text><![CDATA[<h3>$[name]</h3>]]></text>
      </BalloonStyle>
    </Style>
    <StyleMap id="line-DB4436-5000-nodesc">
      <Pair>
        <key>normal</key>
        <styleUrl>#line-DB4436-5000-nodesc-normal</styleUrl>
      </Pair>
      <Pair>
        <key>highlight</key>
        <styleUrl>#line-DB4436-5000-nodesc-highlight</styleUrl>
      </Pair>
    </StyleMap>
    <Folder>
      <name>Capa sin nombre</name>
      <Placemark>
        <name>INICIO RECORRIDO:</name>
        <description>Convivir - Chimita - Calle 45 - Campo Hermoso - Carrera 9 - Calle 33 - Carrera 19 - Calle 14</description>
        <styleUrl>#icon-25</styleUrl>
        <Point>
          <coordinates>
            -73.165501,7.110219,0
          </coordinates>
        </Point>
      </Placemark>
      <Placemark>
        <name>Inicio</name>
        <styleUrl>#line-000099-5000-nodesc</styleUrl>
        <LineString>
          <tessellate>1</tessellate>
          <coordinates>
            -73.165456,7.110224,0
            -73.165493,7.10925,0
            -73.165544,7.107935,0
            -73.164431,7.107914,0
            -73.163203,7.107893,0
            -73.162237,7.107842,0
            -73.162291,7.107722,0
            -73.162575,7.107153,0
            -73.162857,7.106647,0
            -73.16346,7.105697,0
            -73.163935,7.10496,0
            -73.164361,7.104284,0
            -73.164892,7.103456,0
            -73.1653,7.102812,0
            -73.165563,7.102343,0
            -73.165877,7.101643,0
            -73.165944,7.101114,0
            -73.16607,7.100155,0
            -73.166167,7.099655,0
            -73.166252,7.099226,0
            -73.166368,7.098843,0
            -73.166671,7.097818,0
            -73.167073,7.096557,0
            -73.167317,7.095782,0
            -73.167636,7.094795,0
            -73.167939,7.093837,0
            -73.16813,7.092815,0
            -73.16809,7.092623,0
            -73.167958,7.092554,0
            -73.167811,7.092644,0
            -73.16773,7.09332,0
            -73.16693,7.09645,0
            -73.16609,7.0993,0
            -73.165303,7.099014,0
            -73.16454,7.0987,0
            -73.163058,7.098258,0
            -73.15915,7.0973,0
            -73.158844,7.097339,0
            -73.158589,7.097438,0
            -73.157975,7.097909,0
            -73.157675,7.098029,0
            -73.15608,7.09848,0
            -73.155,7.09891,0
            -73.154789,7.098878,0
            -73.154113,7.098673,0
            -73.1539,7.09865,0
            -73.15218,7.09891,0
            -73.15166,7.09916,0
            -73.15128,7.09923,0
            -73.15107,7.09918,0
            -73.150237,7.098574,0
            -73.149987,7.098537,0
            -73.14877,7.09858,0
            -73.148456,7.098689,0
            -73.148051,7.098899,0
            -73.14755,7.09912,0
            -73.14644,7.09946,0
            -73.14631,7.09956,0
            -73.146235,7.099668,0
            -73.1462,7.09979,0
            -73.1462,7.09994,0
            -73.14631,7.10018,0
            -73.14656,7.10032,0
            -73.14708,7.10026,0
            -73.147303,7.100398,0
            -73.147321,7.100475,0
            -73.1473,7.100666,0
            -73.14727,7.10073,0
            -73.147093,7.100789,0
            -73.14692,7.10078,0
            -73.146399,7.100597,0
            -73.146039,7.100541,0
            -73.145758,7.100584,0
            -73.145299,7.100619,0
            -73.14391,7.10049,0
            -73.14371,7.10052,0
            -73.143336,7.100738,0
            -73.142947,7.101015,0
            -73.14253,7.10126,0
            -73.14204,7.10168,0
            -73.14058,7.10343,0
            -73.13994,7.10472,0
            -73.13968,7.10504,0
            -73.13924,7.10534,0
            -73.13439,7.10931,0
            -73.132607,7.110666,0
            -73.132293,7.110842,0
            -73.131561,7.111209,0
            -73.13119,7.11138,0
            -73.129549,7.112346,0
            -73.12964,7.1124,0
            -73.129895,7.11312,0
            -73.130209,7.113892,0
            -73.130469,7.114629,0
            -73.130729,7.115324,0
            -73.13102,7.11606,0
            -73.131284,7.116891,0
            -73.131496,7.117663,0
            -73.131244,7.118395,0
            -73.131158,7.118728,0
            -73.130348,7.119018,0
            -73.12948,7.1193,0
            -73.128026,7.119872,0
            -73.127336,7.120155,0
            -73.1269472,7.1203371,0
            -73.126537,7.120434,0
            -73.125772,7.120756,0
            -73.124831,7.121113,0
            -73.124,7.12144,0
            -73.124423,7.122606,0
            -73.124785,7.123551,0
            -73.124858,7.1237,0
            -73.125003,7.124118,0
            -73.125244,7.124722,0
            -73.125539,7.125486,0
            -73.125671,7.125909,0
            -73.125858,7.126654,0
            -73.12603,7.127495,0
            -73.126194,7.128355,0
            -73.12654,7.130045,0
            -73.126717,7.130848,0
            -73.126869,7.131711,0
            -73.127017,7.132584,0
            -73.127122,7.132954,0
            -73.12722,7.13341,0
            -73.126379,7.133563,0
            -73.125534,7.133731,0
            -73.124659,7.133909,0
            -73.123855,7.134069,0
            -73.123106,7.134226,0
            -73.122935,7.134236,0
            -73.12264,7.134354,0
            -73.121304,7.134606,0
            -73.120413,7.134604,0
          </coordinates>
        </LineString>
      </Placemark>
      <Placemark>
        <name>REGRESO POR:</name>
        <description>Calle 14 - Carrera 30 - Avenida Quebradaseca - Carrera 33 - Calle 34 - Carrera 9- Calle 45 - Centro Abastos - Chimita - Convivir</description>
        <styleUrl>#icon-25</styleUrl>
        <Point>
          <coordinates>
            -73.120539,7.134638,0
          </coordinates>
        </Point>
      </Placemark>
      <Placemark>
        <name>Regreso</name>
        <styleUrl>#line-DB4436-5000-nodesc</styleUrl>
        <LineString>
          <tessellate>1</tessellate>
          <coordinates>
            -73.1204,7.1346,0
            -73.11946,7.13454,0
            -73.11824,7.13455,0
            -73.11817,7.1344,0
            -73.11794,7.13431,0
            -73.11784,7.1335,0
            -73.11679,7.12841,0
            -73.11604,7.12871,0
            -73.11533,7.12918,0
            -73.11441,7.1299,0
            -73.11302,7.12726,0
            -73.11261,7.12542,0
            -73.11621,7.12342,0
            -73.11735,7.12286,0
            -73.12125,7.12144,0
            -73.1221,7.12108,0
            -73.12288,7.12084,0
            -73.12621,7.11959,0
            -73.12849,7.1188,0
            -73.13009,7.11816,0
            -73.13163,7.11764,0
            -73.13114,7.11603,0
            -73.13027,7.11388,0
            -73.12972,7.11235,0
            -73.13123,7.11146,0
            -73.13233,7.1109,0
            -73.13387,7.10982,0
            -73.13826,7.10624,0
            -73.13968,7.10517,0
            -73.13994,7.10491,0
            -73.1406,7.10357,0
            -73.1409,7.10314,0
            -73.14135,7.10268,0
            -73.14212,7.10176,0
            -73.14365,7.10062,0
            -73.14383,7.10058,0
            -73.14453,7.1006,0
            -73.14498,7.10069,0
            -73.14601,7.10067,0
            -73.14643,7.10073,0
            -73.14702,7.1009,0
            -73.1472,7.10088,0
            -73.14734,7.10075,0
            -73.14739,7.1006,0
            -73.14738,7.10041,0
            -73.14724,7.10024,0
            -73.14706,7.10015,0
            -73.14677,7.10021,0
            -73.14657,7.10019,0
            -73.14637,7.10006,0
            -73.14631,7.09984,0
            -73.14632,7.09969,0
            -73.14648,7.09953,0
            -73.14783,7.09912,0
            -73.14862,7.09871,0
            -73.14937,7.09865,0
            -73.15018,7.09867,0
            -73.15101,7.09925,0
            -73.15138,7.0993,0
            -73.15176,7.09922,0
            -73.15216,7.09899,0
            -73.15414,7.09876,0
            -73.15478,7.09903,0
            -73.15518,7.09897,0
            -73.1560562,7.0986493,0
            -73.15791,7.09803,0
            -73.15887,7.0974,0
            -73.15924,7.09737,0
            -73.16304,7.09839,0
            -73.16539,7.09912,0
            -73.16601,7.09942,0
            -73.16606,7.09971,0
            -73.16588,7.10102,0
            -73.16538,7.10219,0
            -73.1642,7.10411,0
            -73.16381,7.10467,0
            -73.1619,7.10848,0
            -73.16117,7.11143,0
            -73.16071,7.11288,0
            -73.16276,7.11371,0
            -73.16318,7.11273,0
            -73.16365,7.11249,0
            -73.1649,7.11169,0
            -73.16529,7.11104,0
            -73.16545,7.11024,0
          </coordinates>
        </LineString>
      </Placemark>
    </Folder>
  </Document>
</kml>
