<?xml version="1.0" encoding="UTF-8"?>
<kml xmlns="http://www.opengis.net/kml/2.2">
  <Document>
    <name>RUTA 13 - RESOLUCIÓN No.: 002029 (01 DE OCTUBRE DE 2014)</name>
    <description>LA FERIA - GIRARDOT - GLORIETA DE LA CARRERA 9A CON AVENIDA QUEBRADASECA - AVENIDA QUEBRADASECA - CARRERA 11 - CALLE 33 - CARRERA 31 - CALLE 32 - CARRERA 33 - CALLE 14 - CALLE 13 - CARRERA 22 - CALLE 24 - CARRERA 18 - CALLE 34 - CARRERA 10 - CARRERA 9 - GLORIETA - LA FERIA</description>
    <Style id="icon-25-normal">
      <IconStyle>
        <scale>1.1</scale>
        <Icon>
          <href>https://www.gstatic.com/mapspro/images/stock/25-bus.png</href>
        </Icon>
      </IconStyle>
      <LabelStyle>
        <scale>0</scale>
      </LabelStyle>
    </Style>
    <Style id="icon-25-highlight">
      <IconStyle>
        <scale>1.1</scale>
        <Icon>
          <href>https://www.gstatic.com/mapspro/images/stock/25-bus.png</href>
        </Icon>
      </IconStyle>
      <LabelStyle>
        <scale>1.1</scale>
      </LabelStyle>
    </Style>
    <StyleMap id="icon-25">
      <Pair>
        <key>normal</key>
        <styleUrl>#icon-25-normal</styleUrl>
      </Pair>
      <Pair>
        <key>highlight</key>
        <styleUrl>#icon-25-highlight</styleUrl>
      </Pair>
    </StyleMap>
    <Style id="line-3F5BA9-5000-nodesc-normal">
      <LineStyle>
        <color>ffa95b3f</color>
        <width>5</width>
      </LineStyle>
      <BalloonStyle>
        <text><![CDATA[<h3>$[name]</h3>]]></text>
      </BalloonStyle>
    </Style>
    <Style id="line-3F5BA9-5000-nodesc-highlight">
      <LineStyle>
        <color>ffa95b3f</color>
        <width>7.5</width>
      </LineStyle>
      <BalloonStyle>
        <text><![CDATA[<h3>$[name]</h3>]]></text>
      </BalloonStyle>
    </Style>
    <StyleMap id="line-3F5BA9-5000-nodesc">
      <Pair>
        <key>normal</key>
        <styleUrl>#line-3F5BA9-5000-nodesc-normal</styleUrl>
      </Pair>
      <Pair>
        <key>highlight</key>
        <styleUrl>#line-3F5BA9-5000-nodesc-highlight</styleUrl>
      </Pair>
    </StyleMap>
    <Style id="line-4186F0-5000-nodesc-normal">
      <LineStyle>
        <color>fff08641</color>
        <width>5</width>
      </LineStyle>
      <BalloonStyle>
        <text><![CDATA[<h3>$[name]</h3>]]></text>
      </BalloonStyle>
    </Style>
    <Style id="line-4186F0-5000-nodesc-highlight">
      <LineStyle>
        <color>fff08641</color>
        <width>7.5</width>
      </LineStyle>
      <BalloonStyle>
        <text><![CDATA[<h3>$[name]</h3>]]></text>
      </BalloonStyle>
    </Style>
    <StyleMap id="line-4186F0-5000-nodesc">
      <Pair>
        <key>normal</key>
        <styleUrl>#line-4186F0-5000-nodesc-normal</styleUrl>
      </Pair>
      <Pair>
        <key>highlight</key>
        <styleUrl>#line-4186F0-5000-nodesc-highlight</styleUrl>
      </Pair>
    </StyleMap>
    <Folder>
      <name>Capa sin nombre</name>
      <Placemark>
        <name>Inicio</name>
        <styleUrl>#line-3F5BA9-5000-nodesc</styleUrl>
        <LineString>
          <tessellate>1</tessellate>
          <coordinates>
            -73.135176,7.123883,0
            -73.134911,7.122595,0
            -73.134814,7.12185,0
            -73.134664,7.121163,0
            -73.133824,7.121288,0
            -73.133049,7.121445,0
            -73.132596,7.121515,0
            -73.132489,7.121501,0
            -73.132304,7.121075,0
            -73.132102,7.120743,0
            -73.131824,7.120586,0
            -73.131735,7.120469,0
            -73.131494,7.12041,0
            -73.131349,7.120562,0
            -73.131309,7.120618,0
            -73.131279,7.120705,0
            -73.130979,7.120208,0
            -73.130595,7.119588,0
            -73.13037,7.119005,0
            -73.129568,7.119276,0
            -73.128785,7.119569,0
            -73.128023,7.119872,0
            -73.127363,7.120155,0
            -73.127242,7.120197,0
            -73.126542,7.120434,0
            -73.125775,7.120751,0
            -73.124831,7.121113,0
            -73.123997,7.12144,0
            -73.12324,7.121743,0
            -73.122492,7.122026,0
            -73.121569,7.122361,0
            -73.120939,7.122646,0
            -73.120242,7.122904,0
            -73.119456,7.123207,0
            -73.11863,7.123567,0
            -73.117651,7.123942,0
            -73.117535,7.123984,0
            -73.116766,7.124408,0
            -73.115948,7.124879,0
            -73.115215,7.125259,0
            -73.114759,7.125531,0
            -73.114472,7.125688,0
            -73.114864,7.126438,0
            -73.114153,7.126803,0
            -73.113029,7.127274,0
            -73.112941,7.127319,0
            -73.113035,7.127495,0
            -73.113587,7.128562,0
            -73.114354,7.129962,0
            -73.114572,7.129965,0
            -73.114733,7.130617,0
            -73.114885,7.131455,0
            -73.115095,7.132328,0
            -73.115285,7.13314,0
            -73.11606,7.1329166,0
            -73.1162396,7.133811,0
            -73.1163472,7.1344757,0
          </coordinates>
        </LineString>
      </Placemark>
      <Placemark>
        <name>INICIO RECORRIDO;</name>
        <description>La Feria - Girardot - Glorieta de la Carrera 9A con Avenida Quebradaseca - Carrera 11 - Calle 33 - Carrera 31 - Calle 32 - Carrera 33 - Calle 14</description>
        <styleUrl>#icon-25</styleUrl>
        <Point>
          <coordinates>
            -73.135217,7.123859,0
          </coordinates>
        </Point>
      </Placemark>
      <Placemark>
        <name>REGRESO POR:</name>
        <description>Calle 14 - Calle 13 - Carrera 22 - Calle 24 - Carrera 18 - Calle 34 - Carrera 10 - Carrera 9 - Glorieta - La Feria</description>
        <styleUrl>#icon-25</styleUrl>
        <Point>
          <coordinates>
            -73.1136269,7.1082757,0
          </coordinates>
        </Point>
      </Placemark>
      <Placemark>
        <name>Regreso</name>
        <styleUrl>#line-4186F0-5000-nodesc</styleUrl>
        <LineString>
          <tessellate>1</tessellate>
          <coordinates>
            -73.1163961,7.1345013,0
            -73.1175876,7.1345594,0
            -73.1177676,7.1346194,0
            -73.1178376,7.1347394,0
            -73.1180076,7.1348394,0
            -73.1180876,7.1348394,0
            -73.1180211,7.1353346,0
            -73.1195065,7.1353636,0
            -73.12048,7.1353568,0
            -73.1214427,7.1351212,0
            -73.1223296,7.1349732,0
            -73.1231038,7.1347773,0
            -73.1230798,7.1344128,0
            -73.1248476,7.1345594,0
            -73.1233576,7.1270994,0
            -73.1231376,7.1264494,0
            -73.1264476,7.1251094,0
            -73.1252676,7.1222294,0
            -73.1237926,7.1179804,0
            -73.1204026,7.1191724,0
            -73.1176986,7.1131894,0
            -73.1172696,7.1132744,0
            -73.1162826,7.1106764,0
            -73.1154246,7.1081434,0
            -73.1142121,7.1082496,0
            -73.1134127,7.1022236,0
            -73.1169266,7.0997744,0
            -73.1162616,7.0986994,0
            -73.1173776,7.0978904,0
            -73.1185146,7.0970284,0
            -73.1194366,7.0984276,0
            -73.1192976,7.0989334,0
            -73.1189116,7.0992424,0
            -73.118477,7.0999344,0
            -73.1183536,7.1007224,0
            -73.1180636,7.1011054,0
            -73.1169266,7.1014994,0
            -73.1161326,7.1017764,0
            -73.1154356,7.1023194,0
            -73.1151996,7.1025324,0
            -73.1147376,7.1029684,0
            -73.1142336,7.1036504,0
            -73.1145556,7.1047254,0
            -73.1151026,7.1060354,0
            -73.1155746,7.1056734,0
            -73.1163686,7.1053004,0
            -73.1169266,7.1050444,0
            -73.1183316,7.1044914,0
            -73.1190186,7.1057154,0
            -73.1196516,7.1073234,0
            -73.1200376,7.1085264,0
            -73.1202956,7.1092714,0
            -73.1218836,7.1133594,0
            -73.1225916,7.1145944,0
            -73.1233746,7.1158084,0
            -73.1238576,7.1165854,0
            -73.1245336,7.1176714,0
            -73.1249626,7.1184694,0
            -73.1255096,7.1198754,0
            -73.1285376,7.1187894,0
            -73.1309576,7.1178594,0
            -73.1312776,7.1183994,0
            -73.1311976,7.1187194,0
            -73.1310676,7.1198994,0
            -73.1313776,7.1205494,0
            -73.1313376,7.1207894,0
            -73.1315276,7.1209794,0
            -73.1316876,7.1209394,0
            -73.1318476,7.1207994,0
            -73.1321876,7.1209494,0
            -73.1327276,7.1222294,0
            -73.1331276,7.1242794,0
            -73.1351976,7.1238694,0
          </coordinates>
        </LineString>
      </Placemark>
    </Folder>
  </Document>
</kml>
